risco/risco_trace.vcd
$date
     May 03, 2026       17:36:24
$end

$version
 SystemC 2.3.4-Accellera --- Apr 22 2024 14:54:19
$end

$timescale
     1 ps
$end

$scope module SystemC $end
$var wire    1  aaaaa  clk       $end
$var wire    1  aaaab  reset       $end
$var wire   32  aaaac  PC [31:0]  $end
$var wire   32  aaaad  instrucao_IF [31:0]  $end
$var wire   32  aaaae  instrucao_EX [31:0]  $end
$var wire    4  aaaaf  rd [3:0]  $end
$var wire    4  aaaag  rs1 [3:0]  $end
$var wire    4  aaaah  rs2 [3:0]  $end
$var wire   32  aaaai  rs1_data [31:0]  $end
$var wire   32  aaaaj  rs2_data [31:0]  $end
$var wire   32  aaaak  ula_resultado [31:0]  $end
$var wire    1  aaaal  flag_zero       $end
$var wire   32  aaaam  wb_data [31:0]  $end
$var wire    1  aaaan  reg_write       $end
$var wire    1  aaaao  mem_read       $end
$var wire    1  aaaap  mem_write       $end
$upscope $end
$enddefinitions  $end

$comment
All initial values are dumped below at time 0 sec = 0 timescale units.
$end

$dumpvars
1aaaaa
1aaaab
b0 aaaac
b10000001000000000000000000000101 aaaad
b0 aaaae
b0 aaaaf
b0 aaaag
b0 aaaah
b0 aaaai
b0 aaaaj
b0 aaaak
1aaaal
b0 aaaam
1aaaan
0aaaao
0aaaap
$end

#5000
0aaaaa

#10000
1aaaaa

#15000
0aaaaa
0aaaab

#20000
1aaaaa
b1 aaaac
b10000010000000000000000000000011 aaaad
b10000001000000000000000000000101 aaaae
b1 aaaaf
b101 aaaak
0aaaal
b101 aaaam

#25000
0aaaaa

#30000
1aaaaa
b10 aaaac
b11000100100000000000000000 aaaad
b10000010000000000000000000000011 aaaae
b10 aaaaf
b11 aaaak
b11 aaaam

#35000
0aaaaa

#40000
1aaaaa
b11 aaaac
b10100011000000000000000001100100 aaaad
b11000100100000000000000000 aaaae
b11 aaaaf
b1 aaaag
b10 aaaah
b101 aaaai
b11 aaaaj
b1000 aaaak
b1000 aaaam

#45000
0aaaaa

#50000
1aaaaa
b100 aaaac
b11000000000000000000000000000100 aaaad
b10100011000000000000000001100100 aaaae
b0 aaaag
b11 aaaah
b0 aaaai
b1000 aaaaj
b1100100 aaaak
b1100100 aaaam
0aaaan
1aaaap

#55000
0aaaaa

#60000
1aaaaa
b101 aaaac
b0 aaaad
b11000000000000000000000000000100 aaaae
b0 aaaaf
b0 aaaah
b0 aaaaj
b0 aaaak
1aaaal
b0 aaaam
0aaaap

#65000
0aaaaa

#70000
1aaaaa
b100 aaaac
b11000000000000000000000000000100 aaaad
b0 aaaae
1aaaan

#75000
0aaaaa

#80000
1aaaaa
b101 aaaac
b0 aaaad
b11000000000000000000000000000100 aaaae
0aaaan

#85000
0aaaaa

#90000
1aaaaa
b100 aaaac
b0 aaaae
1aaaan

#95000
0aaaaa

#100000
1aaaaa
b101 aaaac

#105000
0aaaaa

#110000
1aaaaa
b110 aaaac

#115000
0aaaaa

#120000
1aaaaa
b111 aaaac

#125000
0aaaaa

#130000
1aaaaa
b1000 aaaac

