risco/risco_trace.vcd
$date
     May 03, 2026       17:42:03
$end

$version
 SystemC 2.3.4-Accellera --- Apr 22 2024 14:54:19
$end

$timescale
     1 ps
$end

$scope module SystemC $end
$var wire    1  aaaaa  clk       $end
$var wire    1  aaaab  reset       $end
$var wire   32  aaaac  PC [31:0]  $end
$var wire   32  aaaad  instrucao_IF [31:0]  $end
$var wire   32  aaaae  instrucao_EX [31:0]  $end
$var wire    4  aaaaf  rd [3:0]  $end
$var wire    4  aaaag  rs1 [3:0]  $end
$var wire    4  aaaah  rs2 [3:0]  $end
$var wire   32  aaaai  rs1_data [31:0]  $end
$var wire   32  aaaaj  rs2_data [31:0]  $end
$var wire   32  aaaak  rd_read_data [31:0]  $end
$var wire   32  aaaal  ula_A [31:0]  $end
$var wire   32  aaaam  ula_B [31:0]  $end
$var wire   32  aaaan  ula_resultado [31:0]  $end
$var wire    1  aaaao  flag_zero       $end
$var wire   32  aaaap  wb_data [31:0]  $end
$var wire    1  aaaaq  reg_write       $end
$var wire    1  aaaar  mem_read       $end
$var wire    1  aaaas  mem_write       $end
$var wire   32  aaaat  store_data [31:0]  $end
$upscope $end
$enddefinitions  $end

$comment
All initial values are dumped below at time 0 sec = 0 timescale units.
$end

$dumpvars
1aaaaa
1aaaab
b0 aaaac
b10000001000000000000000000000101 aaaad
b0 aaaae
b0 aaaaf
b0 aaaag
b0 aaaah
b0 aaaai
b0 aaaaj
b0 aaaak
b0 aaaal
b0 aaaam
b0 aaaan
1aaaao
b0 aaaap
1aaaaq
0aaaar
0aaaas
b0 aaaat
$end

#5000
0aaaaa

#10000
1aaaaa

#15000
0aaaaa
0aaaab

#20000
1aaaaa
b1 aaaac
b10000010000000000000000000000011 aaaad
b10000001000000000000000000000101 aaaae
b1 aaaaf
b101 aaaam
b101 aaaan
0aaaao
b101 aaaap

#25000
0aaaaa

#30000
1aaaaa
b10 aaaac
b11000100100000000000000000 aaaad
b10000010000000000000000000000011 aaaae
b10 aaaaf
b11 aaaam
b11 aaaan
b11 aaaap

#35000
0aaaaa

#40000
1aaaaa
b11 aaaac
b10000100001100000000000000001010 aaaad
b11000100100000000000000000 aaaae
b11 aaaaf
b1 aaaag
b10 aaaah
b101 aaaai
b11 aaaaj
b101 aaaal
b1000 aaaan
b1000 aaaap
b11 aaaat

#45000
0aaaaa

#50000
1aaaaa
b100 aaaac
b10100011000000000000000001100100 aaaad
b10000100001100000000000000001010 aaaae
b100 aaaaf
b11 aaaag
b0 aaaah
b1000 aaaai
b0 aaaaj
b1000 aaaal
b1010 aaaam
b10010 aaaan
b10010 aaaap
b0 aaaat

#55000
0aaaaa

#60000
1aaaaa
b101 aaaac
b10010101000000000000000001100100 aaaad
b10100011000000000000000001100100 aaaae
b11 aaaaf
b0 aaaag
b0 aaaai
b1000 aaaak
b0 aaaal
b1100100 aaaam
b1100100 aaaan
b1100100 aaaap
0aaaaq
1aaaas
b1000 aaaat

#65000
0aaaaa

#70000
1aaaaa
b110 aaaac
b10110010000010000000000000000 aaaad
b10010101000000000000000001100100 aaaae
b101 aaaaf
b0 aaaak
b1000 aaaap
1aaaaq
1aaaar
0aaaas
b0 aaaat

#75000
0aaaaa

#80000
1aaaaa
b111 aaaac
b11000000000000000000000000000111 aaaad
b10110010000010000000000000000 aaaae
b110 aaaaf
b100 aaaag
b1 aaaah
b10010 aaaai
b101 aaaaj
b10010 aaaal
b101 aaaam
b1101 aaaan
b1101 aaaap
0aaaar
b101 aaaat

#85000
0aaaaa

#90000
1aaaaa
b1000 aaaac
b0 aaaad
b11000000000000000000000000000111 aaaae
b0 aaaaf
b0 aaaag
b0 aaaah
b0 aaaai
b0 aaaaj
b0 aaaal
b0 aaaam
b0 aaaan
1aaaao
b0 aaaap
0aaaaq
b0 aaaat

#95000
0aaaaa

#100000
1aaaaa
b111 aaaac
b11000000000000000000000000000111 aaaad
b0 aaaae
1aaaaq

#105000
0aaaaa

#110000
1aaaaa
b1000 aaaac
b0 aaaad
b11000000000000000000000000000111 aaaae
0aaaaq

#115000
0aaaaa

#120000
1aaaaa
b111 aaaac
b11000000000000000000000000000111 aaaad
b0 aaaae
1aaaaq

#125000
0aaaaa

#130000
1aaaaa
b1000 aaaac
b0 aaaad
b11000000000000000000000000000111 aaaae
0aaaaq

#135000
0aaaaa

#140000
1aaaaa
b111 aaaac
b11000000000000000000000000000111 aaaad
b0 aaaae
1aaaaq

#145000
0aaaaa

#150000
1aaaaa
b1000 aaaac
b0 aaaad
b11000000000000000000000000000111 aaaae
0aaaaq

#155000
0aaaaa

#160000
1aaaaa
b111 aaaac
b11000000000000000000000000000111 aaaad
b0 aaaae
1aaaaq

#165000
0aaaaa

#170000
1aaaaa
b1000 aaaac
b0 aaaad
b11000000000000000000000000000111 aaaae
0aaaaq

