risco/risco_trace.vcd
$date
     May 11, 2026       01:59:16
$end

$version
 SystemC 2.3.3-Accellera --- Mar 17 2022 13:55:26
$end

$timescale
     1 ps
$end

$scope module SystemC $end
$var wire    1  aaaaa  clk       $end
$var wire    1  aaaab  reset       $end
$var wire   32  aaaac  PC [31:0]  $end
$var wire   32  aaaad  instrucao_IF [31:0]  $end
$var wire   32  aaaae  instrucao_EX [31:0]  $end
$var wire    4  aaaaf  rd [3:0]  $end
$var wire    4  aaaag  rs1 [3:0]  $end
$var wire    4  aaaah  rs2 [3:0]  $end
$var wire   32  aaaai  rs1_data [31:0]  $end
$var wire   32  aaaaj  rs2_data [31:0]  $end
$var wire   32  aaaak  rd_read_data [31:0]  $end
$var wire   32  aaaal  ula_A [31:0]  $end
$var wire   32  aaaam  ula_B [31:0]  $end
$var wire   32  aaaan  ula_resultado [31:0]  $end
$var wire    1  aaaao  flag_zero       $end
$var wire   32  aaaap  wb_data [31:0]  $end
$var wire    1  aaaaq  reg_write       $end
$var wire    1  aaaar  mem_read       $end
$var wire    1  aaaas  mem_write       $end
$var wire   32  aaaat  store_data [31:0]  $end
$var wire    1  aaaau  branch       $end
$var wire    1  aaaav  jump       $end
$upscope $end
$enddefinitions  $end

$comment
All initial values are dumped below at time 0 sec = 0 timescale units.
$end

$dumpvars
1aaaaa
1aaaab
b0 aaaac
b10000001000000000000000000000000 aaaad
b0 aaaae
b0 aaaaf
b0 aaaag
b0 aaaah
b0 aaaai
b0 aaaaj
b0 aaaak
b0 aaaal
b0 aaaam
b0 aaaan
1aaaao
b0 aaaap
1aaaaq
0aaaar
0aaaas
b0 aaaat
0aaaau
0aaaav
$end

#5000
0aaaaa

#10000
1aaaaa

#15000
0aaaaa
0aaaab

#20000
1aaaaa
b1 aaaac
b10000001000100000000000000000001 aaaad
b10000001000000000000000000000000 aaaae
b1 aaaaf

#25000
0aaaaa

#30000
1aaaaa
b10 aaaac
b10000001000100000000000000000001 aaaae
b1 aaaag
b1 aaaam
b1 aaaan
0aaaao
b1 aaaap

#35000
0aaaaa

#40000
1aaaaa
b11 aaaac
b1 aaaai
b1 aaaak
b1 aaaal
b10 aaaan
b10 aaaap

#45000
0aaaaa

#50000
1aaaaa
b100 aaaac
b10000001000000000000000000000101 aaaad
b10 aaaai
b10 aaaak
b10 aaaal
b11 aaaan
b11 aaaap

#55000
0aaaaa

#60000
1aaaaa
b101 aaaac
b10000010000000000000000000000011 aaaad
b10000001000000000000000000000101 aaaae
b0 aaaag
b0 aaaai
b11 aaaak
b0 aaaal
b101 aaaam
b101 aaaan
b101 aaaap

#65000
0aaaaa

#70000
1aaaaa
b110 aaaac
b10000011000000000000000000000000 aaaad
b10000010000000000000000000000011 aaaae
b10 aaaaf
b0 aaaak
b11 aaaam
b11 aaaan
b11 aaaap

#75000
0aaaaa

#80000
1aaaaa
b111 aaaac
b10110010000000000000000000000100 aaaad
b10000011000000000000000000000000 aaaae
b11 aaaaf
b0 aaaam
b0 aaaan
1aaaao
b0 aaaap

#85000
0aaaaa

#90000
1aaaaa
b1000 aaaac
b11001100010000000000000000 aaaad
b10110010000000000000000000000100 aaaae
b10 aaaaf
b11 aaaak
b11 aaaal
b11 aaaan
0aaaao
b11 aaaap
0aaaaq
1aaaau

#95000
0aaaaa

#100000
1aaaaa
b1001 aaaac
b10000010001011111111111111111111 aaaad
b11001100010000000000000000 aaaae
b11 aaaaf
b11 aaaag
b1 aaaah
b101 aaaaj
b0 aaaak
b0 aaaal
b101 aaaam
b101 aaaan
b101 aaaap
1aaaaq
b101 aaaat
0aaaau

#105000
0aaaaa

#110000
1aaaaa
b1010 aaaac
b11000000000000000000000000000111 aaaad
b10000010001011111111111111111111 aaaae
b10 aaaaf
b10 aaaag
b1111 aaaah
b11 aaaai
b0 aaaaj
b11 aaaak
b11 aaaal
b11111111111111111111111111111111 aaaam
b10 aaaan
b10 aaaap
b0 aaaat

#115000
0aaaaa

#120000
1aaaaa
b1011 aaaac
b10000001000000000000000000000101 aaaad
b11000000000000000000000000000111 aaaae
b0 aaaaf
b0 aaaag
b0 aaaah
b0 aaaai
b0 aaaak
b0 aaaal
b0 aaaam
b0 aaaan
1aaaao
b0 aaaap
0aaaaq
1aaaav

#125000
0aaaaa

#130000
1aaaaa
b111 aaaac
b10110010000000000000000000000100 aaaad
b0 aaaae
1aaaaq
0aaaav

#135000
0aaaaa

#140000
1aaaaa
b1000 aaaac
b11001100010000000000000000 aaaad
b10110010000000000000000000000100 aaaae
b10 aaaaf
b10 aaaak
b10 aaaal
b10 aaaan
0aaaao
b10 aaaap
0aaaaq
1aaaau

#145000
0aaaaa

#150000
1aaaaa
b1001 aaaac
b10000010001011111111111111111111 aaaad
b11001100010000000000000000 aaaae
b11 aaaaf
b11 aaaag
b1 aaaah
b101 aaaai
b101 aaaaj
b101 aaaak
b101 aaaal
b101 aaaam
b1010 aaaan
b1010 aaaap
1aaaaq
b101 aaaat
0aaaau

#155000
0aaaaa

#160000
1aaaaa
b1010 aaaac
b11000000000000000000000000000111 aaaad
b10000010001011111111111111111111 aaaae
b10 aaaaf
b10 aaaag
b1111 aaaah
b10 aaaai
b0 aaaaj
b10 aaaak
b10 aaaal
b11111111111111111111111111111111 aaaam
b1 aaaan
b1 aaaap
b0 aaaat

#165000
0aaaaa

#170000
1aaaaa
b1011 aaaac
b10000001000000000000000000000101 aaaad
b11000000000000000000000000000111 aaaae
b0 aaaaf
b0 aaaag
b0 aaaah
b0 aaaai
b0 aaaak
b0 aaaal
b0 aaaam
b0 aaaan
1aaaao
b0 aaaap
0aaaaq
1aaaav

#175000
0aaaaa

#180000
1aaaaa
b111 aaaac
b10110010000000000000000000000100 aaaad
b0 aaaae
1aaaaq
0aaaav

#185000
0aaaaa

#190000
1aaaaa
b1000 aaaac
b11001100010000000000000000 aaaad
b10110010000000000000000000000100 aaaae
b10 aaaaf
b1 aaaak
b1 aaaal
b1 aaaan
0aaaao
b1 aaaap
0aaaaq
1aaaau

#195000
0aaaaa

#200000
1aaaaa
b1001 aaaac
b10000010001011111111111111111111 aaaad
b11001100010000000000000000 aaaae
b11 aaaaf
b11 aaaag
b1 aaaah
b1010 aaaai
b101 aaaaj
b1010 aaaak
b1010 aaaal
b101 aaaam
b1111 aaaan
b1111 aaaap
1aaaaq
b101 aaaat
0aaaau

#205000
0aaaaa

#210000
1aaaaa
b1010 aaaac
b11000000000000000000000000000111 aaaad
b10000010001011111111111111111111 aaaae
b10 aaaaf
b10 aaaag
b1111 aaaah
b1 aaaai
b0 aaaaj
b1 aaaak
b1 aaaal
b11111111111111111111111111111111 aaaam
b0 aaaan
1aaaao
b0 aaaap
b0 aaaat

#215000
0aaaaa

#220000
1aaaaa
b1011 aaaac
b10000001000000000000000000000101 aaaad
b11000000000000000000000000000111 aaaae
b0 aaaaf
b0 aaaag
b0 aaaah
b0 aaaai
b0 aaaak
b0 aaaal
b0 aaaam
0aaaaq
1aaaav

#225000
0aaaaa

#230000
1aaaaa
b111 aaaac
b10110010000000000000000000000100 aaaad
b0 aaaae
1aaaaq
0aaaav

#235000
0aaaaa

#240000
1aaaaa
b1000 aaaac
b11001100010000000000000000 aaaad
b10110010000000000000000000000100 aaaae
b10 aaaaf
0aaaaq
1aaaau

#245000
0aaaaa

#250000
1aaaaa
b1100 aaaac
b10000010000000000000000000000011 aaaad
b0 aaaae
b0 aaaaf
1aaaaq
0aaaau

#255000
0aaaaa

#260000
1aaaaa
b1101 aaaac
b10100001000010000000000000000 aaaad
b10000010000000000000000000000011 aaaae
b10 aaaaf
b11 aaaam
b11 aaaan
0aaaao
b11 aaaap

#265000
0aaaaa

#270000
1aaaaa
b1110 aaaac
b10110100000000000000000000000010 aaaad
b10100001000010000000000000000 aaaae
b100 aaaaf
b10 aaaag
b1 aaaah
b11 aaaai
b101 aaaaj
b11 aaaal
b101 aaaam
b11111111111111111111111111111110 aaaan
b11111111111111111111111111111110 aaaap
b101 aaaat

#275000
0aaaaa

#280000
1aaaaa
b1111 aaaac
b10100001000000000000000000001010 aaaad
b10110100000000000000000000000010 aaaae
b0 aaaag
b0 aaaah
b0 aaaai
b0 aaaaj
b11111111111111111111111111111110 aaaak
b11111111111111111111111111111110 aaaal
b0 aaaam
0aaaaq
b0 aaaat
1aaaau

#285000
0aaaaa

#290000
1aaaaa
b10000 aaaac
b11000000000000000000000000010010 aaaad
b10100001000000000000000000001010 aaaae
b1 aaaaf
b101 aaaak
b0 aaaal
b1010 aaaam
b1010 aaaan
b1010 aaaap
1aaaas
b101 aaaat
0aaaau

#295000
0aaaaa

#300000
1aaaaa
b10001 aaaac
b10100001000000000000000000001010 aaaad
b11000000000000000000000000010010 aaaae
b0 aaaaf
b0 aaaak
b0 aaaam
b0 aaaan
1aaaao
b0 aaaap
0aaaas
b0 aaaat
1aaaav

#305000
0aaaaa

#310000
1aaaaa
b10010 aaaac
b11000000000000000000000000010100 aaaad
b0 aaaae
1aaaaq
0aaaav

#315000
0aaaaa

#320000
1aaaaa
b10011 aaaac
b0 aaaad
b11000000000000000000000000010100 aaaae
0aaaaq
1aaaav

